*** Darwin 29x11 ***
Turn = 0.
  01234567890
0 ...........
1 ...........
2 .......t..t
3 t..........
4 ...........
5 ..t..f.....
6 ...........
7 ...........
8 ...........
9 ...........
0 ...........
1 ...........
2 ...........
3 ...........
4 ...........
5 ...........
6 ...........
7 h..........
8 ...........
9 ...........
0 ...........
1 ...........
2 .......r...
3 ...........
4 ...........
5 ..r.r......
6 ...........
7 ...........
8 ........f..

Turn = 15.
  01234567890
0 ...........
1 ...........
2 .......t..t
3 t..........
4 ...........
5 ..t..f.....
6 ...........
7 ...........
8 ...........
9 ...........
0 ..r........
1 ...........
2 ...........
3 ...........
4 ...........
5 ...........
6 ...........
7 ...........
8 ...........
9 ...........
0 ...........
1 .......r...
2 ...........
3 ...........
4 ...........
5 ...........
6 ...........
7 ...........
8 rr......f..

*** Darwin 11x27 ***
Turn = 0.
  012345678901234567890123456
0 .........h.r...r...........
1 ...........................
2 ....................f......
3 ...........................
4 ......h....t.....t....f....
5 ..h........h..........r....
6 ..............rr..........f
7 t..........................
8 .h.................t...h...
9 ...................f.......
0 .....h......f............h.

*** Darwin 10x28 ***
Turn = 0.
  0123456789012345678901234567
0 ....r.....................r.
1 .r.f..........t.......f.....
2 ...............f..r.........
3 .............ft.......f.....
4 ...f........................
5 ......t.r..t........t.......
6 h.h.......f.....h...........
7 .......f.......t............
8 .............r.....h...t....
9 ....t...............t.r.....

*** Darwin 1x16 ***
Turn = 0.
  0123456789012345
0 ..rff..t...f....

Turn = 7.
  0123456789012345
0 .r.ff..t...f....

Turn = 14.
  0123456789012345
0 .r.rr..t...f....

Turn = 21.
  0123456789012345
0 ..rr..rr...f....

Turn = 28.
  0123456789012345
0 .....r.r.rrr....

Turn = 35.
  0123456789012345
0 ....r...rr..r..r

Turn = 42.
  0123456789012345
0 r..r........rr.r

*** Darwin 14x13 ***
Turn = 0.
  0123456789012
0 ...frrt.h.rr.
1 hrhhr.h.rrfr.
2 htr.tf.f.thh.
3 r..h..fttfftf
4 ..h.fftrhh.th
5 ..f....t..ttt
6 .r.f..h.rh.t.
7 ffhr..rr.fth.
8 ..t..t.f...hh
9 .hhffhhfh.hfr
0 t.th.t.f.hh.r
1 rf..r..rtt...
2 t..t.r.trrtr.
3 hr.fh.fttth..

*** Darwin 18x30 ***
Turn = 0.
  012345678901234567890123456789
0 .........r....................
1 f........................t....
2 ........t......f..........h...
3 ......r.......................
4 ...............f..............
5 ....f............t.....h......
6 ..............................
7 .r...........h................
8 .............t................
9 ....................t.........
0 ..............................
1 ..............................
2 ..........................h...
3 ..............................
4 ..........................t...
5 ..............................
6 ...........t..................
7 ..............................

Turn = 9.
  012345678901234567890123456789
0 .r........................h...
1 f.r......................t....
2 ........t......f..............
3 ...............r..............
4 ...............f..............
5 ....f............t...........h
6 ..............................
7 ......................h.......
8 .............t................
9 ....................t.........
0 ..............................
1 ..............................
2 ..............................
3 ..........................t...
4 ..........................t...
5 ..............................
6 ...........t..................
7 ..............................

Turn = 18.
  012345678901234567890123456789
0 ..........................h...
1 f........................t....
2 ........t......f..............
3 ........................r.....
4 ...............f..............
5 ....f............t...........h
6 ..............................
7 .............................h
8 .............t................
9 .r..................t.........
0 ..r...........................
1 ..............................
2 ..............................
3 ..........................t...
4 ..........................t...
5 ..............................
6 ...........t..................
7 ..............................

Turn = 27.
  012345678901234567890123456789
0 ..........................h...
1 f........................t....
2 ........t......f..............
3 ..............................
4 ...............f.............r
5 ....f............t............
6 .............................r
7 .............................h
8 .............t................
9 ....................t.........
0 ..............................
1 ..............................
2 ..............................
3 ..........................t...
4 ..........................t...
5 ..............................
6 ...........t..................
7 .rr...........................

*** Darwin 27x18 ***
Turn = 0.
  012345678901234567
0 ...tf..h..........
1 ................r.
2 ..h....rr.........
3 .f........f.......
4 ....t.............
5 h...r.....f.......
6 ............f..h..
7 ......r....h......
8 f..........t..ft.t
9 ..............r..t
0 ..r....f..r.......
1 .......hff.t.....h
2 ......h....f......
3 ..............f..f
4 ......t.....tf....
5 .....f.....r.....f
6 .......r..........
7 ..................
8 .......r..........
9 ..fh...t.....h....
0 .t...........r....
1 ..f..............h
2 ....tr............
3 .....h.tr...ft.h.t
4 .....f...h........
5 ......h.........t.
6 .h.h.......h......

Turn = 1.
  012345678901234567
0 ...tf...h.........
1 ..h............r..
2 .......r.r........
3 .f........f.......
4 ....t.............
5 .....r....f.......
6 h..........hf...h.
7 .......r..........
8 f..........t..rt.t
9 ..............r..t
0 .r.....f..........
1 ......h.ffrt......
2 .......h...t.....h
3 ..............f..f
4 ......t.....tf....
5 .....f...........f
6 ...........r......
7 .......r..........
8 ........r.........
9 ..f....t....h.....
0 .t.h........r.....
1 ..f...............
2 ....tr...........h
3 ....r..t.r..fth..t
4 .....f...h........
5 .h...h..........t.
6 ....h.......h.....

Turn = 2.
  012345678901234567
0 ..htt....h........
1 ..............r...
2 ..........r.......
3 .f.....r..f.......
4 ....t.............
5 ......r...fh......
6 ............f....h
7 h.......r.........
8 f..........t.rrt.t
9 .................t
0 r......f..........
1 .....h..ff.t......
2 ........h.rt.....h
3 ..............f..f
4 ......t.....tf....
5 .....f...........f
6 ..................
7 ...........r......
8 .......r.r........
9 ..f....t...h......
0 .t.........r......
1 ..fh..............
2 ....t............h
3 ....tr.t.hr.fth..t
4 .h...f............
5 ....h...........t.
6 .....h.......h....

Turn = 3.
  012345678901234567
0 ..htt.....h.......
1 .............r....
2 ...........r......
3 .f........f.......
4 ....t..r...h......
5 .......r..f.......
6 ............f....h
7 h........r....r...
8 f..........tr..t.t
9 .................t
0 r......f..........
1 ....h...ff.t......
2 .........h.t.....h
3 ..........r...f..f
4 ......t.....tt....
5 .....f...........f
6 ..................
7 ..................
8 .......r..rr......
9 ..f.......h.......
0 .t.....r..r.......
1 ..f...............
2 ...ht....h.......t
3 .h..tr.t...rtth..t
4 ......r...........
5 ...h............t.
6 ......h.......h...

*** Darwin 19x1 ***
Turn = 0.
  0
0 .
1 .
2 .
3 .
4 .
5 t
6 .
7 .
8 .
9 .
0 .
1 .
2 r
3 h
4 .
5 .
6 .
7 t
8 .

Turn = 6.
  0
0 .
1 .
2 .
3 .
4 .
5 t
6 r
7 .
8 .
9 .
0 .
1 .
2 .
3 .
4 .
5 .
6 t
7 t
8 .

Turn = 12.
  0
0 r
1 r
2 .
3 .
4 .
5 .
6 .
7 .
8 .
9 .
0 .
1 .
2 .
3 .
4 .
5 .
6 t
7 t
8 .

Turn = 18.
  0
0 r
1 r
2 .
3 .
4 .
5 .
6 .
7 .
8 .
9 .
0 .
1 .
2 .
3 .
4 .
5 .
6 t
7 t
8 .

*** Darwin 5x25 ***
Turn = 0.
  0123456789012345678901234
0 .hffr.h.t...h..rfhfhr.r..
1 tt.....tt.hf.hftrff..fhtt
2 f..h...t.ftthf..f..hf...r
3 r......t..ht.f....r.fr...
4 .tf...fhr.trf..rhrf.rr..h

Turn = 4.
  0123456789012345678901234
0 .ttfh...t....h.trrrrrrr..
1 tt.....tt.hth.trrrrh.r.rt
2 t.....rrrttttt..fr..f..rt
3 ...rr..t..tt.f....rr..rr.
4 .tt...tt..ttrrh...rr.....

Turn = 8.
  0123456789012345678901234
0 .tttt...t....h.rrrrrr.rrr
1 tt.....tt.ttt.ttrr.rrrr..
2 t......t.ttttt..t.rrrr...
3 ......tt..tt.t...r..rr.r.
4 .tttt.ttt.ttttt.rr.......

Turn = 12.
  0123456789012345678901234
0 .tttt...t....h.ttr.rrrrr.
1 tt.....tt.ttt.tttt.r.rrr.
2 t......t.ttttt..tt.....rr
3 ......tt..tt.rr..rrr.....
4 .tttt.ttt.tttttr...rr...r

Turn = 16.
  0123456789012345678901234
0 .tttt...t....h.ttt....rrr
1 tt.....tt.ttt.ttttrrr.r.r
2 t......t.ttttt..tt..rrr..
3 ......tt..ttttr..r..r..r.
4 .tttt.ttt.tttttt..r...r..

Turn = 20.
  0123456789012345678901234
0 .tttt...t....h.ttttrrr.r.
1 tt.....tt.ttt.ttttt....r.
2 t......t.tttttrr.r.....r.
3 ......tt..ttttttr...rr...
4 .tttt.ttt.tttttt....r.r.r

Turn = 24.
  0123456789012345678901234
0 .tttt...t....h.ttttt..r.r
1 tt.....tt.ttt.ttttt.rr..r
2 t......t.ttttttt.t.r.....
3 ......tt..ttttttrr.....r.
4 .tttt.ttt.ttttttr.......r

Turn = 28.
  0123456789012345678901234
0 .tttt...t....h.ttttrr..r.
1 tt.....tt.ttt.ttttt..rrr.
2 t......t.ttttttt..r..r..r
3 ......tt..ttttttrr.r.....
4 .tttt.ttt.tttttt.r.......

Turn = 32.
  0123456789012345678901234
0 .tttt...t....h.tttt..r..r
1 tt.....tt.ttt.ttttttr...r
2 t......t.ttttttt..tt.r...
3 ......tt..ttttttt..t.....
4 .tttt.ttt.tttttt.....rrr.

Turn = 36.
  0123456789012345678901234
0 .tttt...t....h.tttt....r.
1 tt.....tt.ttt.ttttttttrr.
2 t......t.ttttttt..tt....r
3 ......tt..ttttttt..t.....
4 .tttt.ttt.tttttt...r....r

*** Darwin 9x11 ***
Turn = 0.
  01234567890
0 ...........
1 .f.....t...
2 ..........h
3 fh.........
4 ....f....f.
5 ...........
6 ..r......r.
7 ...........
8 ....t.t.h..

*** Darwin 5x1 ***
Turn = 0.
  0
0 h
1 r
2 .
3 r
4 h

*** Darwin 29x13 ***
Turn = 0.
  0123456789012
0 ........f..r.
1 f............
2 .........r...
3 .............
4 .h...r......r
5 ...t.........
6 ...r.h.......
7 f........r...
8 th...........
9 f..t..h...hr.
0 .............
1 r...r........
2 ........r.rh.
3 r....h.f...f.
4 ..........r..
5 ...h.......f.
6 ........r....
7 .....hf......
8 ...r...r.....
9 ........r.t..
0 ...f......f..
1 .h....r......
2 ...h.......f.
3 h..f....f....
4 ..........h..
5 .hh....t.....
6 rf.f.........
7 .............
8 h....f...f..r

Turn = 9.
  0123456789012
0 ........f....
1 f............
2 ............r
3 .............
4 h............
5 ...t.........
6 .tt....r.....
7 tt.hr.......r
8 t..........r.
9 t............
0 r......r.....
1 .....r.......
2 ...........hr
3 .....rh.h.r..
4 ...........r.
5 .....h.....f.
6 ...r.........
7 ......f.....r
8 ...rr.....h.r
9 r.....r.....r
0 ........r.t..
1 r............
2 r......r...f.
3 ...f......r..
4 .h...........
5 ..r...tt.....
6 .f.f.r.......
7 r.r..........
8 ...r.f...f...

Turn = 18.
  0123456789012
0 ...r....f..r.
1 f......r.....
2 .............
3 .............
4 h............
5 ...t.........
6 .tttt.....r..
7 tt.r.........
8 t............
9 t..rr....rr..
0 r......r.....
1 ............r
2 ............r
3 .............
4 r.....r......
5 ......r.....r
6 ..r...h......
7 .....r.......
8 ......r......
9 ......r......
0 .....r......r
1 r........r...
2 r....r...r...
3 ...f.........
4 .....h.......
5 ......tt.r.r.
6 .f.f...rr.r..
7 r..........r.
8 rr.....r...r.

Turn = 27.
  0123456789012
0 ....rr..r.r..
1 f...r....r...
2 ....r...r....
3 .............
4 h...........r
5 ...t.........
6 .ttt.........
7 rtr.....r....
8 rr...........
9 rr...........
0 .......r.....
1 .............
2 r..r.........
3 r...........r
4 .............
5 .............
6 .............
7 .....r..r..r.
8 ....r.......r
9 ............r
0 r............
1 .............
2 r............
3 r..f........r
4 r.....t.....r
5 ......trr...r
6 ...r..rr.....
7 ...r.r.......
8 r..r.rrrrr...

Turn = 36.
  0123456789012
0 r.r.....r....
1 frr..........
2 r............
3 r............
4 ...r.........
5 ...tt........
6 .ttt.........
7 r.rt..r.....r
8 .r.r.........
9 ......r......
0 ......r......
1 .............
2 .....r.r...rr
3 ............r
4 ......r......
5 .............
6 .r...........
7 r.r.........r
8 .r.....r.....
9 ....r........
0 .............
1 ...r.r.rr....
2 r............
3 ....r.tt...r.
4 r...r.t......
5 ....r.t......
6 r...r.....r..
7 ..r......r...
8 rr..r........

Turn = 45.
  0123456789012
0 ...r.r.....r.
1 .............
2 .............
3 r...r.......r
4 ..rrr......rr
5 .rr.r........
6 .............
7 r.tt........r
8 ..........rrr
9 r......r..r.r
0 ..r..........
1 .............
2 r.r..r..r....
3 .......rr....
4 .............
5 r............
6 ......r......
7 ....r...rrr..
8 ........rr...
9 ..r.....r....
0 rr.....r.....
1 r.r.....r.r..
2 ...r.........
3 ...........r.
4 .............
5 ...r..t......
6 .............
7 ..r..........
8 r.r.....r...r

*** Darwin 26x7 ***
Turn = 0.
  0123456
0 r...t.h
1 rr..t.h
2 ......h
3 fr.tr.h
4 ...t.tf
5 rhr..rh
6 .r...f.
7 ..tf..f
8 r..ffh.
9 rtfr..f
0 t.h.r..
1 r..h...
2 r....f.
3 tf.r..f
4 r...rf.
5 f..f.t.
6 ffrh.hf
7 rf.f...
8 ..tht.r
9 t.fhhfh
0 frtrh.t
1 h.h....
2 .h...f.
3 t.r.r.t
4 tfrhr.t
5 h...r..

Turn = 7.
  0123456
0 r.r.rrh
1 ...r..r
2 h.....r
3 r.rt..r
4 r.r.rtr
5 ..r..rr
6 ..r..f.
7 ...t..f
8 rtr...r
9 tt...rr
0 tt.....
1 trrr...
2 .....f.
3 ttr....
4 t...rrr
5 t.rfrrr
6 t..ttrr
7 .f.tt..
8 ..ttt..
9 t.ttt.r
0 t..rrtt
1 ...r..r
2 tr.rrr.
3 tttr.rt
4 tt....t
5 tt...r.

*** Darwin 24x7 ***
Turn = 0.
  0123456
0 ...hr..
1 trt....
2 thh...t
3 tf.....
4 ....t.h
5 ..f.r.r
6 .t.hf.t
7 ..t....
8 f..r.ff
9 ....r.t
0 ..r.rr.
1 ..r.hf.
2 hfrft.f
3 t.r.h.h
4 ft..trr
5 ..frr..
6 ..rr.f.
7 ....h..
8 .rt....
9 ....t..
0 ..f..t.
1 ..th..h
2 r.ff...
3 ..t.f.f

Turn = 4.
  0123456
0 ...h..r
1 ttt....
2 tt...rr
3 tt.....
4 ....t..
5 ..f...t
6 .tttrrt
7 ..t.r..
8 f.t..ff
9 .r...r.
0 ..r..r.
1 ....rrr
2 h..fttt
3 tt..tr.
4 trt.rr.
5 .rt.r.r
6 ..t....
7 h..r...
8 ..t..rr
9 ....t..
0 ..f..t.
1 ..t..hh
2 ..tt...
3 r.t.f.f

Turn = 8.
  0123456
0 ...h.rr
1 ttt....
2 tt....r
3 tt.....
4 ....t..
5 ..t...t
6 .tttt.t
7 r.ttr.r
8 r.t..r.
9 ..rr...
0 ..r...r
1 ..r.rr.
2 t..f..r
3 tt..trr
4 t.t.rrr
5 ...r.rr
6 r.t....
7 r......
8 ..t....
9 ....tt.
0 ..t..tt
1 ..tt.tt
2 r.tt...
3 ..t.f.f

Turn = 12.
  0123456
0 ..r.r..
1 ttt....
2 tt....r
3 tt.....
4 r...t.r
5 r.t..r.
6 .tttttr
7 ..ttr.r
8 ..t.r..
9 ......r
0 rr...r.
1 r....r.
2 r..fr..
3 tt..trr
4 t.t.rr.
5 ....rrr
6 ..t....
7 ...r...
8 r.t....
9 r...ttr
0 ..t..tt
1 ..tt.tt
2 ..tt...
3 ..t.f.f

Turn = 16.
  0123456
0 .t....r
1 ttt....
2 tt.....
3 tt..t..
4 t...rr.
5 t.t.t..
6 .tttttt
7 ..ttt.t
8 ..tt..t
9 .......
0 ...r.r.
1 r.....r
2 ttt....
3 tt..ttt
4 t.t...r
5 .r.r...
6 r.t....
7 .....r.
8 ..rrrrr
9 ....rrr
0 ..t..t.
1 ..tt.tt
2 ..tt..t
3 ..t.f.t

Turn = 20.
  0123456
0 .tr....
1 ttt..r.
2 tt.....
3 tt.....
4 t...r.r
5 t.t.t..
6 .tttttt
7 r.tttrt
8 ..ttr.t
9 .......
0 .......
1 .......
2 ttt...r
3 tt..ttr
4 t.t..t.
5 t......
6 ..r.rr.
7 ..r....
8 ....rrr
9 ..tt..r
0 ..t.r.r
1 ..ttttr
2 ..tt..t
3 ..t.f.t

Turn = 24.
  0123456
0 r.t...r
1 ttt....
2 tt.....
3 tt.....
4 t.....r
5 t.t..rt
6 ttttttt
7 ..ttttt
8 ..ttt.t
9 ......t
0 .......
1 .......
2 ttt....
3 tt..ttr
4 t.trtr.
5 t.....r
6 r.....r
7 ......r
8 ......r
9 ..ttt.r
0 ..t.tt.
1 ..ttt..
2 ..tt..t
3 ..t.ttt

Turn = 28.
  0123456
0 .tt....
1 ttt..rr
2 tt....r
3 tt.....
4 t......
5 t.t...t
6 ttttttt
7 ..ttttt
8 ..ttt.t
9 ......r
0 ...r..r
1 .......
2 ttt....
3 tt..tt.
4 t.t.tt.
5 t.....r
6 .......
7 r.....r
8 ..r....
9 ..ttt.r
0 ..t.ttr
1 ..ttt..
2 ..tt..t
3 ..t.ttt

Turn = 32.
  0123456
0 .ttr...
1 ttt....
2 ttr....
3 tt.....
4 t.....r
5 t.t...t
6 ttttttt
7 ..ttttt
8 ..rrt.t
9 ..r...t
0 ......t
1 .......
2 ttt....
3 tt..tt.
4 t.t.tt.
5 t.r....
6 .......
7 .......
8 ......r
9 r.ttt.r
0 ..t.tt.
1 r.tttr.
2 ..tt..t
3 ..t.ttt

*** Darwin 19x28 ***
Turn = 0.
  0123456789012345678901234567
0 ............................
1 .......t.h.t........rtft....
2 ......................r.....
3 ..............h.......r.....
4 ................ht.h.......t
5 t....h..f.t.ht......h.f.....
6 ..ft...............f..h.....
7 ...........f................
8 ...................f....t...
9 t.......r..........h....f...
0 .....r.......f..t.......hf.r
1 .....t...r....r.........tr..
2 ...h...tr..t...r.....t......
3 ..rr.......rh.h..f.f..hr....
4 ...h..t.h..........hr......t
5 ..........ff.........h......
6 .trt................f..r.t..
7 ..h.....h....r..............
8 .h............t.............

*** Darwin 23x24 ***
Turn = 0.
  012345678901234567890123
0 .f......h.....r....f.h..
1 .......................f
2 ............f...........
3 .....................f..
4 ................f.......
5 f.......r..h......h.....
6 ........r...............
7 ..h..r...t....rt......ff
8 ......h.........f......r
9 ........f....r.....f....
0 ........................
1 ....................f...
2 ....t.......h...........
3 ................f.tt....
4 ......h...........f.....
5 .......t..h.............
6 ...............rt.......
7 .........t.....f........
8 .........r...r.......t..
9 ...............f........
0 ....t..r............t...
1 .t....r.......t.t.......
2 .............t........t.

Turn = 2.
  012345678901234567890123
0 .f......h..........f.h..
1 .......................f
2 ............f.r.........
3 .....................f..
4 ........r.......f.......
5 f.h...r......h..h.......
6 ........................
7 ......hr.t.....t......ff
8 ..............r.f.......
9 ........f......r...f....
0 .......................r
1 ....................f...
2 ....t...................
3 ..........h.....f.tt....
4 ............h..r..t.....
5 ......tt................
6 ................t.......
7 .........t.....f........
8 .........t.....r.....t..
9 ...............f........
0 ....tr..............t...
1 .t............t.t.......
2 ......r......t........t.

Turn = 4.
  012345678901234567890123
0 .f......h..........f.h..
1 .......................f
2 ........r...f...........
3 ..h..................f..
4 ..............r.f.......
5 f...r.h.......hh........
6 ........................
7 ........rr.....t......ff
8 ............r...f.......
9 ........f........r.f....
0 ........................
1 ..........h.........f...
2 ....t..........r.......r
3 ................f.tt....
4 ..................t.....
5 ......tt................
6 ............h...t.......
7 .........t.....f........
8 .........t.......r...t..
9 ...............f........
0 ....r...............t...
1 .t..r.........t.t.......
2 ........r....t........t.

Turn = 6.
  012345678901234567890123
0 .f......r..........f.h..
1 ..h.....r..............f
2 ............f...........
3 ......h..............f..
4 ..............rrf.......
5 f.r......r....r.........
6 ........................
7 ...............t......ff
8 ........r.r.....f.......
9 ........f.h.......r.....
0 ...............r...r....
1 ....................f...
2 ....t...................
3 ................f.tt....
4 ..................t....r
5 ......tt................
6 ................t.......
7 .........t.....f........
8 .........t..h......r.t..
9 ...............f........
0 ..r.................t...
1 .t............t.t.......
2 ....r.....r..t........t.

Turn = 8.
  012345678901234567890123
0 .fh......r.........f.h..
1 ......h..r.............f
2 ............f..r........
3 .........r....r......f..
4 ............r...f.......
5 rr......................
6 ........................
7 ..........h....t......ff
8 ........r......rf.......
9 ........r.r.........r...
0 ........................
1 ....................f...
2 ....t..............r....
3 ................f.tt....
4 ..................t.....
5 ......tt................
6 ................t......r
7 .........t.....f........
8 .........t..........tt..
9 ...............f........
0 .t..........h.......t...
1 .t............t.t.......
2 ......r.....rt........t.

Turn = 10.
  012345678901234567890123
0 .fh...h....r...r...f.h..
1 .........r.r..r........f
2 ............f...........
3 .....................f..
4 rr........r.....f.......
5 ..........h.............
6 ........................
7 ..............rr......ff
8 ......r.........f.......
9 ............r.........r.
0 ........................
1 ........r...........f...
2 ....t..............r....
3 ................f.tr....
4 ..................t.....
5 ......tt................
6 ................t.......
7 .........t.....f........
8 .........t..........tt.r
9 ...............f........
0 .t..................t...
1 .t..........h.t.t.......
2 ........r....r.r......t.

Turn = 12.
  012345678901234567890123
0 .fh...h..r...rr.r..f.h..
1 .............r.........f
2 rr..........f...........
3 ..........h..........f..
4 ........r.......f.......
5 ...............r........
6 ........................
7 ............r.........ff
8 ....r...........f.......
9 ..............r........r
0 ........................
1 ....................f...
2 ....t............r......
3 ........r.......f.tt....
4 ..................t.....
5 ......tt................
6 ................t.......
7 .........t.....f........
8 .........t..........tt..
9 ...............f........
0 .t..................t..r
1 .t............t.t.......
2 ..........r.h..r.r....t.

*** Darwin 31x18 ***
Turn = 0.
  012345678901234567
0 ..................
1 ..................
2 ..................
3 ..................
4 ..................
5 ..................
6 ..................
7 ..................
8 ..................
9 ........r.........
0 ..................
1 ..................
2 ..................
3 ..................
4 ..................
5 ..................
6 ..................
7 ..................
8 ..................
9 ..................
0 ..................
1 ..................
2 ..................
3 ..................
4 ..................
5 ..................
6 ..................
7 ..................
8 ................f.
9 ..................
0 ..................

Turn = 8.
  012345678901234567
0 ..................
1 ..................
2 ..................
3 ..................
4 ..................
5 ..................
6 ..................
7 ..................
8 ..................
9 r.................
0 ..................
1 ..................
2 ..................
3 ..................
4 ..................
5 ..................
6 ..................
7 ..................
8 ..................
9 ..................
0 ..................
1 ..................
2 ..................
3 ..................
4 ..................
5 ..................
6 ..................
7 ..................
8 ................f.
9 ..................
0 ..................

Turn = 16.
  012345678901234567
0 ..................
1 ..................
2 r.................
3 ..................
4 ..................
5 ..................
6 ..................
7 ..................
8 ..................
9 ..................
0 ..................
1 ..................
2 ..................
3 ..................
4 ..................
5 ..................
6 ..................
7 ..................
8 ..................
9 ..................
0 ..................
1 ..................
2 ..................
3 ..................
4 ..................
5 ..................
6 ..................
7 ..................
8 ................f.
9 ..................
0 ..................

*** Darwin 29x16 ***
Turn = 0.
  0123456789012345
0 ................
1 ................
2 ................
3 ................
4 ............h...
5 ................
6 ................
7 ................
8 ................
9 ................
0 ................
1 ................
2 ................
3 ................
4 ................
5 ..r.............
6 ................
7 ................
8 ................
9 ................
0 ................
1 ................
2 ................
3 ................
4 .........h......
5 ................
6 ................
7 ........h.......
8 ................

Turn = 13.
  0123456789012345
0 ................
1 ................
2 ................
3 ................
4 ................
5 r...............
6 ................
7 ................
8 ................
9 ................
0 ................
1 ................
2 ................
3 ................
4 ........h.......
5 ................
6 ................
7 ............h...
8 ................
9 ................
0 ................
1 ................
2 ................
3 ................
4 h...............
5 ................
6 ................
7 ................
8 ................

Turn = 26.
  0123456789012345
0 .....r..........
1 ........h.......
2 ................
3 ................
4 ................
5 ................
6 ................
7 ................
8 ................
9 ................
0 ................
1 ................
2 ................
3 ................
4 ................
5 ................
6 ................
7 ................
8 ................
9 ................
0 ................
1 ................
2 ................
3 ................
4 h...............
5 ................
6 ................
7 ................
8 ............h...

*** Darwin 23x23 ***
Turn = 0.
  01234567890123456789012
0 .......................
1 ....................f..
2 ..............t.f.....f
3 ..........r........r...
4 ..........h............
5 .........f.............
6 .r..t..................
7 ...tt....h..r.........r
8 .......................
9 .......................
0 ...........t...f.......
1 ..ff......r............
2 h..tt.f.t.............r
3 .ht.......f............
4 .r.............f..t....
5 .........t.....r.......
6 f...................f..
7 ......f...r..........f.
8 ......................r
9 ...........h...........
0 .......................
1 ...................t...
2 .r.................t..t

Turn = 9.
  01234567890123456789012
0 ...........r...........
1 ....................f..
2 ..............t.f.....f
3 .r.....................
4 .......................
5 .........f.............
6 ...tt..................
7 ...tt.............h....
8 ......................r
9 ................r......
0 ...........t...fr......
1 ..tt.......t.......r...
2 ...tt.r.t.h............
3 .tt...r...f............
4 ...............f..t....
5 h........t.............
6 f...................f..
7 ..r..................f.
8 .......................
9 .......................
0 .......................
1 ...................rr..
2 .r........r.....r..rr..

Turn = 18.
  01234567890123456789012
0 ..r....................
1 ....................f..
2 ..............t.f.....f
3 ......r................
4 ......r................
5 .........f...........r.
6 ...tt..................
7 ...tt.................h
8 .......................
9 .......r...............
0 r..........tt..........
1 ..tt.......t......r....
2 ...tt...t.h.........r..
3 .tt.......f.........r..
4 ...................r...
5 h........t.............
6 f..................r...
7 ...............r..r..fr
8 .......................
9 .......................
0 .......................
1 ...........r...........
2 r.........r........r.r.

Turn = 27.
  01234567890123456789012
0 .r....................r
1 .r..................f..
2 ..............t.f.r...f
3 ....................r..
4 r...................r..
5 .........f.............
6 ...tt..................
7 ...tt..............r..h
8 ..................r....
9 .......................
0 r..........tt..........
1 ..tt.......t...........
2 ...tt...t.h............
3 .tt.......f............
4 .......................
5 ...r.....t.............
6 r...r..................
7 .....................f.
8 .......................
9 ......................r
0 ..............r........
1 ..r...............r.r..
2 .........r.......r..r..

Turn = 36.
  01234567890123456789012
0 ....r.......rr....rr.rr
1 ......r...............r
2 ..............t.f......
3 .......................
4 .......................
5 .........f.............
6 ...tt.................r
7 ...tt.................r
8 .......................
9 .......................
0 ...........tt..........
1 ..tt.......t..r........
2 ...tt...t.h.......r....
3 ttt.......f......r.....
4 .......................
5 ...........r.r.........
6 .............r.........
7 .....................f.
8 .......................
9 r.............rr.......
0 .......................
1 ...r.......r...........
2 ....r............r.....

*** Darwin 4x21 ***
Turn = 0.
  012345678901234567890
0 fr........r..........
1 tttrhf..f.r...rht..r.
2 h...r........h....fr.
3 ...r..r.....h...f.r..

Turn = 1.
  012345678901234567890
0 rt..h....r.........r.
1 ttt.rf..fr.....tt....
2 h..r........h.r...f.r
3 ...r.r.....h....f..r.

Turn = 2.
  012345678901234567890
0 tt..r...r..........r.
1 ttt.rf..rr.....tt....
2 t..r.......h......f.r
3 ....rr....h...r.f...r

Turn = 3.
  012345678901234567890
0 tt..r..rr...........r
1 ttt.rf..r......tt....
2 t.r..r....h.......f.r
3 ....r....h....r.f...r

Turn = 4.
  012345678901234567890
0 tt.r..r.r...........r
1 tttr.r.r.......tt....
2 tr...r...h........fr.
3 ....r...h......rf...r

Turn = 5.
  012345678901234567890
0 ttt..r.r.............
1 ttrr.rrr.......tt...r
2 rr......h.......r.rr.
3 ...r...h.......r....r

Turn = 6.
  012345678901234567890
0 ttr.rrr..............
1 ttrr..r........tr....
2 rr.....rh.......r.r.r
3 ..r...h.........r.r.r

Turn = 7.
  012345678901234567890
0 ttrr.rr..............
1 ttr...r........tr....
2 t..r...h........rr..r
3 .rr..h.r.........rr.r

Turn = 8.
  012345678901234567890
0 trrrr.r..............
1 trr....r.......rr....
2 t.....h.........rr.rr
3 .rrrh..r.........r.r.

Turn = 9.
  012345678901234567890
0 trrrrr...............
1 ttt.....r......r....r
2 t....h.........r.rr..
3 r.rrh.r.........rr..r

Turn = 10.
  012345678901234567890
0 trrrrr..............r
1 ttt......r....r......
2 t.r.h............rr..
3 r.rh.r.........rr.r.r

Turn = 11.
  012345678901234567890
0 ttr.r...............r
1 ttrt.r....r..r...rr..
2 t.rh................r
3 rrh.r..........r.r.r.

Turn = 12.
  012345678901234567890
0 ttr..............rr.r
1 ttrrr......rr.......r
2 t.rr.r...............
3 rrhr..........r...r.r

Turn = 13.
  012345678901234567890
0 ttt..............rr.r
1 ttrr.......rr.......r
2 tr.rr................
3 trrr.r.......r.....rr

Turn = 14.
  012345678901234567890
0 ttt.............r..rr
1 tt..r..............r.
2 ttrr.......rr........
3 trrrrr......r......rr

Turn = 15.
  012345678901234567890
0 ttt............r...rr
1 tt.r.r............r..
2 ttr.........r......r.
3 trrrr.r....rr......r.

Turn = 16.
  012345678901234567890
0 tttr..........r....r.
1 tt....r..........r.r.
2 trr..........r.....r.
3 tttr.r.r...rr.....r..

Turn = 17.
  012345678901234567890
0 tttt.........r....r..
1 tt.....r........r..r.
2 trrr..........r.....r
3 trr...r.r..r.r...r...

Turn = 18.
  012345678901234567890
0 tttt........r....r...
1 ttrr....r......r....r
2 tr.........r...r....r
3 trr....r.r....r.r....

Turn = 19.
  012345678901234567890
0 ttrt.......r....r....
1 ttrt.....r.r..r.....r
2 ttr.............r...r
3 tt......r.r....rr....

Turn = 20.
  012345678901234567890
0 trrt......rr...r.....
1 ttrt......r..r......r
2 ttr.............rr.r.
3 tt.......r.r...r.....

Turn = 21.
  012345678901234567890
0 trrt.....r.r..r......
1 trrt.......rr...r...r
2 ttr............r..rr.
3 tt........r.r........

Turn = 22.
  012345678901234567890
0 trrt....r.r..r..r....
1 trrt.......rr..r...r.
2 ttr...............r.r
3 tt.........r.r.......

Turn = 23.
  012345678901234567890
0 trrr...r.r..r..rr..r.
1 rrtr........r........
2 ttt........r.........
3 tt..........r.r...r.r

Turn = 24.
  012345678901234567890
0 ttrt..r.r..r...r.r.r.
1 trtt.........r.......
2 ttt..................
3 tt.........r.r.r..r.r

Turn = 25.
  012345678901234567890
0 tttr.r.r..r.....r.r.r
1 ttrr..........r......
2 ttt..................
3 tt.........r..r.rr..r

Turn = 26.
  012345678901234567890
0 ttrtr.r..r.......r.rr
1 tttt...........r.....
2 ttt..................
3 tt........r....rrr..r

Turn = 27.
  012345678901234567890
0 ttttrr..r.........rrr
1 tttt............r....
2 ttt.............rr...
3 tt.......r.....r....r

Turn = 28.
  012345678901234567890
0 ttttrr.r..........r.r
1 tttt............rr.r.
2 ttt..............r..r
3 tt......r......r.....

Turn = 29.
  012345678901234567890
0 ttttt.r.........r.r..
1 tttt.r............r.r
2 ttt.............r..rr
3 tt.....r......r......

Turn = 30.
  012345678901234567890
0 tttttr..........rr...
1 tttt...............rr
2 ttt..r.........r....r
3 tt....r......r.....r.

Turn = 31.
  012345678901234567890
0 tttttt.........rr....
1 tttt...............rr
2 ttt...........r.....r
3 tt...rr.....r......r.

Turn = 32.
  012345678901234567890
0 tttttt........rr....r
1 tttt.................
2 ttt...r......r.....rr
3 tt...r.....r........r

Turn = 33.
  012345678901234567890
0 tttttt.......rr.....r
1 tttt..r.............r
2 ttt.........r........
3 tt....r...r........rr

Turn = 34.
  012345678901234567890
0 ttttttr.....rr......r
1 tttt................r
2 ttt........r........r
3 tt.....r.r.........r.
